	ILP						MLP					
	SIM			EML			SIM			EML		
	2	4	8	2	4	8	2	4	8	2	4	8
400.perlbench	1.53118	2.31525	2.72088	1.629793921	2.447737354	2.836190161	2.31525	2.38789	2.88589	2.447737354	2.450626823	2.864740154
401.bzip2	1.31107	1.64989	1.79536	1.51138286	2.128093096	2.434557654	1.64989	1.66858	1.81619	2.128093096	2.157897049	2.509057992
403.gcc	1.94003	2.76228	4.17687	1.948304335	3.259890825	4.958167689	2.76228	3.04738	5.16762	3.259890825	3.456825737	6.194587654
429.mcf	0.819058	0.922016	0.91825	0.967932081	1.077576325	1.078106367	0.922016	0.974839	1.02676	1.077576325	1.067869095	1.095794339
445.gobmk	1.45962	2.02406	2.32513	1.602391444	2.358719374	2.778232756	2.02406	2.05579	2.42659	2.358719374	2.368664234	2.819811505
456.hmmer	1.71121	2.78668	3.21234	1.429759438	1.558639927	1.573274765	2.78668	2.85649	3.38932	1.558639927	1.564229652	1.573660966
458.sjeng	1.44273	2.06029	2.38366	1.625351016	2.427072547	2.844765046	2.06029	2.09301	2.51209	2.427072547	2.4391295	2.890574243
462.libquantum	0.809244	0.821597	0.834564	0.923382947	1.023134709	1.110381851	0.821597	0.822586	0.834578	1.023134709	1.029783983	1.111939138
464.h264ref	1.81484	2.94846	3.64376	1.663251401	2.504836278	2.914794642	2.94846	3.05209	3.96592	2.504836278	2.518811928	3.090188804
471.omnetpp	1.33997	1.79772	2.1334	1.451232846	1.968986834	2.226447391	1.79772	1.80688	2.15433	1.968986834	1.972656414	2.232672668
473.astar	0.912626	1.07743	1.19648	1.275602326	1.770707051	2.167060686	1.07743	1.08783	1.2107	1.770707051	1.775235333	2.168134458
483.xalancbmk	0.831135	0.951092	0.98414	1.222564965	1.510668876	1.622391551	0.951092	0.956674	1.01347	1.510668876	1.514677136	1.658297785
410.bwaves	0.74147	0.767196	0.769174	1.014548208	1.123369947	1.203905043	0.767196	0.767637	0.773942	1.123369947	1.135338137	1.206853679
433.milc	0.981964	1.0803	1.10032	0.906428277	0.995283549	1.032155029	1.0803	1.08138	1.11661	0.995283549	0.994678694	1.041978388
435.gromacs	1.5841	2.21394	2.3142	1.293216328	1.433925794	1.468740125	2.21394	2.04069	2.43322	1.433925794	1.440430862	1.479637645
436.cactusADM	1.52826	1.78499	1.85961	1.14068312	1.18978195	1.198569291	1.78499	1.81024	1.84263	1.18978195	1.199525992	1.218215429
437.leslie3d	0.809392	0.851526	0.852901	0.798576171	0.81179496	0.81777316	0.851526	0.846663	0.838939	0.81179496	0.814481959	0.822022088
444.namd	1.70434	2.43682	2.55014	1.474908942	1.811062047	1.902479895	2.43682	2.46115	2.5769	1.811062047	1.817891853	1.912250229
450.soplex	1.62706	2.33982	2.93805	1.666429569	2.454840524	3.021398438	2.33982	2.37997	3.06623	2.454840524	2.464778761	3.050233643
453.povray	1.68851	2.44696	2.80681	1.564779603	2.139414642	2.34996831	2.44696	2.5108	2.91619	2.139414642	2.151210298	2.392768562
454.calculix	1.43704	1.99264	2.25174	1.636433796	2.307068591	2.704438973	1.99264	2.04023	2.37761	2.307068591	2.313383132	2.737609204
459.GemsFDTD	0.7235	0.75717	0.770607	0.68833123	0.700739922	0.705759527	0.75717	0.757553	0.771332	0.700739922	0.703752825	0.709907484
465.tonto	1.46954	1.97192	2.15805	1.510440577	1.897287753	2.010496809	1.97192	2.02945	2.20594	1.897287753	1.914603246	2.04661872
470.lbm	1.14004	1.43732	1.4829	0.652139925	0.67604664	0.681193834	1.43732	1.4507	1.50671	0.67604664	0.676742416	0.682193923
481.wrf	1.79239	3.03083	3.11946	1.703920837	2.406045892	2.659656426	3.03083	3.07456	3.16089	2.406045892	2.409707294	2.672496012
482.sphinx3	0.952017	1.07723	1.1009	1.120450058	1.363166969	1.487791934	1.07723	1.07924	1.10012	1.363166969	1.354643102	1.462226189
